<?xml version="1.0" encoding="utf-8"?>
<!-- This URDF was automatically created by SolidWorks to URDF Exporter! Originally created by Stephen Brawner (brawner@gmail.com) 
     Commit Version: 1.5.1-0-g916b5db  Build Version: 1.5.7152.31018
     For more information, please see http://wiki.ros.org/sw_urdf_exporter -->
<robot
  name="AMR_Description">
  <link
    name="base_footprint">
    <inertial>
      <origin
        xyz="0.00301732525068127 -0.000586514759510215 0.15877143170471"
        rpy="0 0 0" />
      <mass
        value="12.4813395480215" />
      <inertia
        ixx="0.131974957012888"
        ixy="0.00140149784761494"
        ixz="-3.52544708434497E-05"
        iyy="0.254767398023158"
        iyz="-1.4166246906452E-05"
        izz="0.377499352147834" />
    </inertial>
    <visual>
      <origin
        xyz="0 0 0"
        rpy="0 0 0" />
      <geometry>
        <mesh
          filename="package://AMR_Description/meshes/base_footprint.STL" />
      </geometry>
      <material
        name="">
        <color
          rgba="0.792156862745098 0.819607843137255 0.933333333333333 1" />
      </material>
    </visual>
    <collision>
      <origin
        xyz="0 0 0"
        rpy="0 0 0" />
      <geometry>
        <mesh
          filename="package://AMR_Description/meshes/base_footprint.STL" />
      </geometry>
    </collision>
  </link>
  <link
    name="base_link">
    <inertial>
      <origin
        xyz="0.00301732525068132 -0.000586514759510548 0.0937714317047097"
        rpy="0 0 0" />
      <mass
        value="12.4813395480215" />
      <inertia
        ixx="0.131974957012888"
        ixy="0.00140149784761493"
        ixz="-3.52544708434495E-05"
        iyy="0.254767398023157"
        iyz="-1.4166246906452E-05"
        izz="0.377499352147834" />
    </inertial>
    <visual>
      <origin
        xyz="0 0 0"
        rpy="0 0 0" />
      <geometry>
        <mesh
          filename="package://AMR_Description/meshes/base_link.STL" />
      </geometry>
      <material
        name="">
        <color
          rgba="0.792156862745098 0.819607843137255 0.933333333333333 1" />
      </material>
    </visual>
    <collision>
      <origin
        xyz="0 0 0"
        rpy="0 0 0" />
      <geometry>
        <mesh
          filename="package://AMR_Description/meshes/base_link.STL" />
      </geometry>
    </collision>
  </link>
  <joint
    name="base_link_joint"
    type="fixed">
    <origin
      xyz="0 0 0.065"
      rpy="0 0 0" />
    <parent
      link="base_footprint" />
    <child
      link="base_link" />
    <axis
      xyz="0 0 0" />
  </joint>
  <link
    name="right_main_wheel">
    <inertial>
      <origin
        xyz="-0.00301732525748732 0.148586514756249 0.0937714317048983"
        rpy="0 0 0" />
      <mass
        value="12.4813395479483" />
      <inertia
        ixx="0.131974957012619"
        ixy="0.0014014978475908"
        ixz="3.52544708918062E-05"
        iyy="0.254767398023132"
        iyz="1.41662470832365E-05"
        izz="0.377499352147623" />
    </inertial>
    <visual>
      <origin
        xyz="0 0 0"
        rpy="0 0 0" />
      <geometry>
        <mesh
          filename="package://AMR_Description/meshes/right_main_wheel.STL" />
      </geometry>
      <material
        name="">
        <color
          rgba="0.792156862745098 0.819607843137255 0.933333333333333 1" />
      </material>
    </visual>
    <collision>
      <origin
        xyz="0 0 0"
        rpy="0 0 0" />
      <geometry>
        <mesh
          filename="package://AMR_Description/meshes/right_main_wheel.STL" />
      </geometry>
    </collision>
  </link>
  <joint
    name="right_main_joint"
    type="continuous">
    <origin
      xyz="0 0.1475 0"
      rpy="0 0 0" />
    <parent
      link="base_link" />
    <child
      link="right_main_wheel" />
    <axis
      xyz="0 0 0" />
  </joint>
  <link
    name="left_main_wheel">
    <inertial>
      <origin
        xyz="0.00301732531424637 -0.148586514721394 0.093771431701714"
        rpy="0 0 0" />
      <mass
        value="12.4813395470839" />
      <inertia
        ixx="0.131974957010915"
        ixy="0.00140149784764261"
        ixz="-3.52544710539561E-05"
        iyy="0.254767398023299"
        iyz="-1.41662477004722E-05"
        izz="0.377499352146202" />
    </inertial>
    <visual>
      <origin
        xyz="0 0 0"
        rpy="0 0 0" />
      <geometry>
        <mesh
          filename="package://AMR_Description/meshes/left_main_wheel.STL" />
      </geometry>
      <material
        name="">
        <color
          rgba="0.792156862745098 0.819607843137255 0.933333333333333 1" />
      </material>
    </visual>
    <collision>
      <origin
        xyz="0 0 0"
        rpy="0 0 0" />
      <geometry>
        <mesh
          filename="package://AMR_Description/meshes/left_main_wheel.STL" />
      </geometry>
    </collision>
  </link>
  <joint
    name="left_main_jont"
    type="continuous">
    <origin
      xyz="0 -0.1485 0"
      rpy="0 0 0" />
    <parent
      link="base_link" />
    <child
      link="left_main_wheel" />
    <axis
      xyz="0 0 0" />
  </joint>
  <link
    name="front_right_caster">
    <inertial>
      <origin
        xyz="0.287012312708638 0.160943875815513 0.121271431692821"
        rpy="0 0 0" />
      <mass
        value="12.4813395462706" />
      <inertia
        ixx="0.13197495701057"
        ixy="0.00140149784812308"
        ixz="-3.52544697985034E-05"
        iyy="0.254767398024963"
        iyz="-1.41662480416849E-05"
        izz="0.377499352146621" />
    </inertial>
    <visual>
      <origin
        xyz="0 0 0"
        rpy="0 0 0" />
      <geometry>
        <mesh
          filename="package://AMR_Description/meshes/front_right_caster.STL" />
      </geometry>
      <material
        name="">
        <color
          rgba="0.792156862745098 0.819607843137255 0.933333333333333 1" />
      </material>
    </visual>
    <collision>
      <origin
        xyz="0 0 0"
        rpy="0 0 0" />
      <geometry>
        <mesh
          filename="package://AMR_Description/meshes/front_right_caster.STL" />
      </geometry>
    </collision>
  </link>
  <joint
    name="front_right_joint"
    type="fixed">
    <origin
      xyz="0.24001 -0.16153 -0.02675"
      rpy="0 0 0" />
    <parent
      link="base_link" />
    <child
      link="front_right_caster" />
    <axis
      xyz="0 0 0" />
  </joint>
  <link
    name="front_left_caster">
    <inertial>
      <origin
        xyz="0.28701231272015 0.16094387582716 0.121271431701982"
        rpy="0 0 0" />
      <mass
        value="12.4813395480723" />
      <inertia
        ixx="0.131974957011395"
        ixy="0.00140149784801829"
        ixz="-3.5254470292812E-05"
        iyy="0.254767398026149"
        iyz="-1.41662476435395E-05"
        izz="0.377499352148279" />
    </inertial>
    <visual>
      <origin
        xyz="0 0 0"
        rpy="0 0 0" />
      <geometry>
        <mesh
          filename="package://AMR_Description/meshes/front_left_caster.STL" />
      </geometry>
      <material
        name="">
        <color
          rgba="0.792156862745098 0.819607843137255 0.933333333333333 1" />
      </material>
    </visual>
    <collision>
      <origin
        xyz="0 0 0"
        rpy="0 0 0" />
      <geometry>
        <mesh
          filename="package://AMR_Description/meshes/front_left_caster.STL" />
      </geometry>
    </collision>
  </link>
  <joint
    name="front_left_jont"
    type="fixed">
    <origin
      xyz="0.24001 0.16247 -0.0275"
      rpy="0 0 0" />
    <parent
      link="base_link" />
    <child
      link="front_left_caster" />
    <axis
      xyz="0 0 0" />
  </joint>
  <link
    name="back_right_link">
    <inertial>
      <origin
        xyz="0.287012312574651 0.160943875734684 0.121271431704621"
        rpy="0 0 0" />
      <mass
        value="12.4813395477594" />
      <inertia
        ixx="0.131974957011833"
        ixy="0.00140149784755097"
        ixz="-3.52544712005863E-05"
        iyy="0.254767398023267"
        iyz="-1.41662473831318E-05"
        izz="0.377499352147239" />
    </inertial>
    <visual>
      <origin
        xyz="0 0 0"
        rpy="0 0 0" />
      <geometry>
        <mesh
          filename="package://AMR_Description/meshes/back_right_link.STL" />
      </geometry>
      <material
        name="">
        <color
          rgba="0.792156862745098 0.819607843137255 0.933333333333333 1" />
      </material>
    </visual>
    <collision>
      <origin
        xyz="0 0 0"
        rpy="0 0 0" />
      <geometry>
        <mesh
          filename="package://AMR_Description/meshes/back_right_link.STL" />
      </geometry>
    </collision>
  </link>
  <joint
    name="back_right_joint"
    type="fixed">
    <origin
      xyz="-0.28399 -0.16153 -0.0275"
      rpy="0 0 0" />
    <parent
      link="base_link" />
    <child
      link="back_right_link" />
    <axis
      xyz="0 0 0" />
  </joint>
  <link
    name="back_left_link">
    <inertial>
      <origin
        xyz="0.28701231260686 0.160943875753231 0.121271431712608"
        rpy="0 0 0" />
      <mass
        value="12.4813395490415" />
      <inertia
        ixx="0.13197495701229"
        ixy="0.00140149784735159"
        ixz="-3.52544710421464E-05"
        iyy="0.254767398023569"
        iyz="-1.41662469944478E-05"
        izz="0.377499352147898" />
    </inertial>
    <visual>
      <origin
        xyz="0 0 0"
        rpy="0 0 0" />
      <geometry>
        <mesh
          filename="package://AMR_Description/meshes/back_left_link.STL" />
      </geometry>
      <material
        name="">
        <color
          rgba="0.792156862745098 0.819607843137255 0.933333333333333 1" />
      </material>
    </visual>
    <collision>
      <origin
        xyz="0 0 0"
        rpy="0 0 0" />
      <geometry>
        <mesh
          filename="package://AMR_Description/meshes/back_left_link.STL" />
      </geometry>
    </collision>
  </link>
  <joint
    name="back_left_joint"
    type="fixed">
    <origin
      xyz="-0.28399 0.16247 -0.0275"
      rpy="0 0 0" />
    <parent
      link="base_link" />
    <child
      link="back_left_link" />
    <axis
      xyz="0 0 0" />
  </joint>
  <link
    name="front_lidar_link">
    <inertial>
      <origin
        xyz="0.26465479701582 0.161459945979944 -0.0403856439404028"
        rpy="0 0 0" />
      <mass
        value="12.4813395486016" />
      <inertia
        ixx="0.131974957013104"
        ixy="0.00140149784764922"
        ixz="-3.52544710195501E-05"
        iyy="0.254767398023645"
        iyz="-1.41662470819993E-05"
        izz="0.377499352148149" />
    </inertial>
    <visual>
      <origin
        xyz="0 0 0"
        rpy="0 0 0" />
      <geometry>
        <mesh
          filename="package://AMR_Description/meshes/front_lidar_link.STL" />
      </geometry>
      <material
        name="">
        <color
          rgba="0.792156862745098 0.819607843137255 0.933333333333333 1" />
      </material>
    </visual>
    <collision>
      <origin
        xyz="0 0 0"
        rpy="0 0 0" />
      <geometry>
        <mesh
          filename="package://AMR_Description/meshes/front_lidar_link.STL" />
      </geometry>
    </collision>
  </link>
  <joint
    name="front_lidar_joint"
    type="fixed">
    <origin
      xyz="-0.26943 -0.16984 0.13416"
      rpy="0 0 0" />
    <parent
      link="base_link" />
    <child
      link="front_lidar_link" />
    <axis
      xyz="0 0 0" />
  </joint>
  <link
    name="back_lidar_link">
    <inertial>
      <origin
        xyz="-0.264654797207346 -0.161459946106314 -0.0403856439338888"
        rpy="0 0 0" />
      <mass
        value="12.4813395489876" />
      <inertia
        ixx="0.131974957012395"
        ixy="0.0014014978467656"
        ixz="3.52544714199705E-05"
        iyy="0.254767398025346"
        iyz="1.41662467735552E-05"
        izz="0.377499352148497" />
    </inertial>
    <visual>
      <origin
        xyz="0 0 0"
        rpy="0 0 0" />
      <geometry>
        <mesh
          filename="package://AMR_Description/meshes/back_lidar_link.STL" />
      </geometry>
      <material
        name="">
        <color
          rgba="0.792156862745098 0.819607843137255 0.933333333333333 1" />
      </material>
    </visual>
    <collision>
      <origin
        xyz="0 0 0"
        rpy="0 0 0" />
      <geometry>
        <mesh
          filename="package://AMR_Description/meshes/back_lidar_link.STL" />
      </geometry>
    </collision>
  </link>
  <joint
    name="back_lidar_joint"
    type="fixed">
    <origin
      xyz="0.27 0.17 0.13416"
      rpy="0 0 0" />
    <parent
      link="base_link" />
    <child
      link="back_lidar_link" />
    <axis
      xyz="0 0 0" />
  </joint>
</robot>