<?xml version="1.0"?>
<robot name="macros" xmlns:xacro="http://www.ros.org/wiki/xacro">
    <!-- <xacro:include filename="$(find agv_tb_description)/urdf/materials.xacro" /> -->
  <!-- Wheels -->
  <xacro:property name="wheel_radius" value="0.065" /> 
  <xacro:property name="wheel_width" value="0.04" />
  <xacro:property name="wheel_pos" value="0" />
  <xacro:property name="wheel_mass" value="1" /> <!-- in kg-->
  
  <xacro:property name="base_width" value="0.636" /> 
  <xacro:property name="base_length" value="0.440" />

  
  <xacro:property name="base_x_origin_to_wheel_origin" value="0.25" />
  <xacro:property name="base_y_origin_to_wheel_origin" value="0.33" />
  <xacro:property name="base_z_origin_to_wheel_origin" value="0.035" />

  <xacro:property name="M_PI" value="3.1415926535897931" /> 
  <xacro:macro name="cylinder_inertia" params="m r h">
    <inertia  ixx="${m*(3*r*r+h*h)/12}" ixy = "0" ixz = "0"
      iyy="${m*(3*r*r+h*h)/12}" iyz = "0"
      izz="${m*r*r/2}"
    />
  </xacro:macro>

  <xacro:macro name="box_inertia" params="m x y z">
    <inertia  ixx="${m*(y*y+z*z)/12}" ixy = "0" ixz = "0"
      iyy="${m*(x*x+z*z)/12}" iyz = "0"
      izz="${m*(x*x+z*z)/12}"
    />
  </xacro:macro>

  <xacro:macro name="sphere_inertia" params="m r">
    <inertia  ixx="${2*m*r*r/5}" ixy = "0" ixz = "0"
      iyy="${2*m*r*r/5}" iyz = "0"
      izz="${2*m*r*r/5}"
    />
  </xacro:macro>


    <!-- support_wheel unit -->
  <xacro:macro name="support_wheel" params="parent location *origin">
    <link name="support_wheel_${location}_link">
      <visual>
        <origin xyz="0 0 0" rpy="0 0 0" />
        <geometry>
          <mesh filename="package://agv_tb_description/meshes/back_up/support_wheel.stl" />
        </geometry>
        <!-- <xacro:xacro_properties name ="material_dark_grey" /> -->
        <material name="">
          <color rgba="0.0 0.0 0.0 1.0"/>
        </material>
      </visual>
      <collision name="collision">
        <origin xyz="0 0 0" rpy="0 0 0"/>
        <geometry>
          <mesh filename="package://agv_tb_description/meshes/back_up/support_wheel.stl" />
        </geometry>
      </collision>
      <inertial>
        <origin xyz="0 0 0" rpy="0 0 0"/>
        <mass value="0.3"/>
        <inertia 
          ixx="0.001" ixy="0.0" ixz="0.0" 
          iyy="0.001" iyz="0.0" 
          izz="0.001"/>
      </inertial>
      
    </link>
    <joint name="support_wheel_${location}_joint" type="continuous">
      <insert_block name="origin" />
      <parent link="${parent}" />
      <child link="support_wheel_${location}_link" />
      <axis xyz="0 0 1" />
      <limit effort="1" velocity="1"/>
      <joint_properties damping="1.0" friction="0.1"/>
    </joint>
  </xacro:macro>

  <xacro:macro name="drive_wheel" params="lr parent tY flip">

    <link name="drive_wheel_${lr}_link">
      <collision>
        <origin xyz="0 0 0" rpy="${flip*M_PI/2} 0  0 " /> 
        <geometry>
          <cylinder length="${wheel_width}" radius="${wheel_radius}"/>
        </geometry>
      </collision>

      <visual>
        <origin xyz="0 0 0" rpy="${flip*M_PI/2} 0  0 " /> 
        <geometry>
          <cylinder length="${wheel_width}" radius="${wheel_radius}"/>
        </geometry>
        <material name="">
          <color rgba="0.0 0.0 0.8 1.0"/>
        </material>
      </visual>

      <inertial>
        <origin xyz="0 0 0" rpy="${flip*M_PI/2} 0  0 "/>
        <mass value="${wheel_mass}" />
        <origin xyz="0 0 0" />
        <xacro:cylinder_inertia  m="${wheel_mass}" r="${wheel_radius}" h="${wheel_width}" />
      </inertial>
    </link>

    <joint name="drive_wheel_${lr}_joint" type="continuous">
      <parent link="${parent}"/>
      <child link="drive_wheel_${lr}_link" />
      <origin xyz="${-wheel_pos * base_x_origin_to_wheel_origin} ${tY * base_y_origin_to_wheel_origin} ${base_z_origin_to_wheel_origin}" rpy="0 0 0" />
      <axis xyz="0 1 0" rpy="0 0 0" />
      <limit effort="0.5" velocity="2"/>
      <joint_properties damping="2.0" friction="1.0"/>
    </joint>

    <transmission name="${lr}_trans">
      <type>transmission_interface/SimpleTransmission</type>
      <joint name="drive_wheel_${lr}_joint">
        <hardwareInterface>hardware_interface/EffortJointInterface</hardwareInterface>
      </joint>
      <actuator name="${lr}Motor">
        <hardwareInterface>hardware_interface/EffortJointInterface</hardwareInterface>
        <mechanicalReduction>1</mechanicalReduction>
      </actuator>
    </transmission>

  </xacro:macro>

    <!-- ULT unit-->
  <xacro:macro name="ultrasonic" params="parent location *origin">
    <link name="ultrasonic_${location}_link">
      <visual>
        <origin xyz="0 0 0" rpy="0 ${M_PI/2} 0" />
        <geometry>
          <cylinder length="0.01" radius="0.01" />
        </geometry>
        <material name="material_dark_grey">
          <!-- <color rgba="0.3 0.3 0.3 1.0" /> -->
        </material>
      </visual>
      <!-- <xacro:box_inertia m="0.1"  /> -->
    </link>

    <joint name="ultrasonic_${location}_joint" type="fixed">
      <xacro:insert_block name="origin" />
      <parent link="${parent}" />
      <child link="ultrasonic_${location}_link" />
    </joint>


  </xacro:macro>
</robot>
