<?xml version="1.0"?>
<robot name="agv_tb_robot" xmlns:xacro="http://www.ros.org/wiki/xacro" description="iqr agv-tb robot">
  <xacro:include filename="$(find agv_tb_description)/urdf/agv_tb.gazebo" />
  <xacro:include filename="$(find agv_tb_description)/urdf/materials.xacro" />
  <xacro:include filename="$(find agv_tb_description)/urdf/agv_nidec.macros.xacro" />

  <!-- <xacro:property name="M_PI" value="3.1415926535897931" />  -->

  <!-- base footprint -->
  <link name="base_footprint">
    <pose>0 0 0 0 0 0</pose>
    <collision name="collision">
        <origin xyz="0 0 0.0523" rpy="0 0 0"/>
        <geometry>
          <box size="0.951 0.59 0.224" />
        </geometry>
    </collision>
    <inertial>
        <mass value="100"/>
        <origin xyz="0 0 0" rpy=" 0 0 0"/>
        <inertia 
        ixx="0.01" ixy="0.01" ixz="0" 
        iyy="0.01" iyz="0.01" 
        izz="0.01" 
        />
    </inertial>
    <visual>
      <origin xyz="0.6 0.364174 0" rpy="1.57 0 -1.57" />
      <geometry>
        <!-- <mesh filename="package://agv_tb_description/meshes/body.stl" scale="0.001 0.001 0.001"/> -->
         <box size="0.951 0.59 0.224" />
      </geometry>
      <material name="">
        <color rgba="1.0 0.7 0.0 1"/>
      </material>
    </visual>
  </link>
  

  <!-- IMU link -->
  <!-- <link name="imu_link" >
  <visual>
      <origin xyz="0 0 0" rpy="0 0 0" />
      <geometry>
        <box size="0.055 0.036 0.0225" />
      </geometry>
      <material name="Red" />
    </visual>
    <collision name="collision">
        <origin xyz="0 0 0" rpy="0 0 0"/>
        <geometry>
          <box size="0.055 0.036 0.0225" />
        </geometry>
      </collision>
    <inertial>
      <mass value="1e-5" />
      <origin xyz="0 0 0.135" rpy="0 0 0"/>
      <inertia ixx="0" ixy="0" ixz="0" iyy="0" iyz="0" izz="0" />
    </inertial>
  </link>

  <joint name="imu_link_joint" type="fixed">
    <origin xyz="0 0 0.1822" rpy="0 0 0" />
    <parent link="base_footprint" />
    <child link="imu_link" />
  </joint> -->
 
  <!-- Laser link -->
  <link name="olei_lidar_link">
      <visual>
        <origin xyz="0 0 0" rpy="0 0 0" />
        <geometry>
          <!-- <mesh filename="package://agv_tb_description/meshes/sick_tim_5xx.stl" /> -->
          <box size="0.08 0.08 0.1" />
        </geometry>
        <material name="material_blue">
    
        </material>
      </visual>
      <collision>
        <origin xyz="0 0 0" rpy="0 0 0"/>
        <geometry>
          <box size="0.08 0.08 0.1" />
        </geometry>
      </collision>
     
    <inertial>
      <mass value="1e-5" />
      <origin xyz="0 0 0" rpy="0 0 0"/>
  
      <inertia ixx="0" ixy="0" ixz="0" iyy="0" iyz="0" izz="0" />
    </inertial>
  </link>

  <joint name="olei_lidar_joint" type="fixed">
    <origin xyz="0.475 0.14 0.11" rpy="3.14 0 0" />
    <parent link="base_footprint" />
    <child link="olei_lidar_link" />
  </joint>

<!-- Camera Link-->
  <link name="d455_link">
      <visual>
        <origin xyz="-0.010825 0.047 0.010775" rpy="-1.57 0 -1.57" />
        <geometry>
          <!-- <mesh filename="package://agv_tb_description/meshes/logitech-d455.stl" scale="0.001 0.001 0.001"/> -->
          <cylinder length="0.08575" radius="0.0372"/>
        </geometry>
        <material name="material_blue">
        
        </material>
      </visual>
      <collision>
        <origin xyz="0 0 0" rpy="0 0 0"/>
        <geometry>
          <mesh filename="package://agv_tb_description/meshes/logitech-d455.stl" scale="0.001 0.001 0.001"/>
        </geometry>
      </collision>
     
    <inertial>
      <mass value="1e-5" />
      <origin xyz="0 0 0" rpy="0 0 0"/>
      <inertia ixx="0" ixy="0" ixz="0" iyy="0" iyz="0" izz="0" />
    </inertial>
  </link>


  <joint name="d455_joint" type="fixed">
    <origin xyz="0.498 0 0.2" rpy="0 0 0" />
    <parent link="base_footprint" />
    <child link="d455_link" />
  </joint>


  <!-- Drive wheel link -->
  <xacro:drive_wheel lr="left" parent="base_footprint" tY="0.5" flip="1"/>
  <xacro:drive_wheel lr="right" parent="base_footprint" tY="-0.5" flip="-1"/>

  <!-- Support wheel link -->
  <xacro:support_wheel parent="base_footprint" location="front_left">
    <origin xyz="0.48 0.218 0.0" rpy="0 0 0" />
  </xacro:support_wheel>

  <xacro:support_wheel parent="base_footprint" location="front_right">
    <origin xyz="0.48 -0.218 0.0" rpy="0 0 0" />
  </xacro:support_wheel>

  <xacro:support_wheel parent="base_footprint" location="rear_left">
    <origin xyz="-0.447 0.218 0.0" rpy="0 0 0" />
  </xacro:support_wheel>

  <xacro:support_wheel parent="base_footprint" location="rear_right">
    <origin xyz="-0.447 -0.218 0.0" rpy="0 0 0" />
  </xacro:support_wheel>

    <!-- Differential drive controller  -->
</robot>